D:\mephi\M3sem\DS_BDA\RESToutJSON\RESToutJSON\src\main\java\json\ModuleController.java
D:\mephi\M3sem\DS_BDA\RESToutJSON\RESToutJSON\src\main\java\json\ModulePacket.java
D:\mephi\M3sem\DS_BDA\RESToutJSON\RESToutJSON\src\main\java\json\TaskController.java
